…
``` r
# Rename columns for clarity
homicide_summary <- homicide_summary %>%
  rename(
    proportion_unsolved = estimate,
    conf_lower = conf.low,
    conf_upper = conf.high
  )

# Display the tidy dataframe with estimated proportions and CIs for each city
print(homicide_summary)
```

    ## # A tibble: 51 × 6
    ##    city_state  total_homicides unsolved_homicides proportion_unsolved conf_lower
    ##    <chr>                 <int>              <int>               <dbl>      <dbl>
    ##  1 Albuquerqu…             378                146               0.386      0.337
    ##  2 Atlanta, GA             973                373               0.383      0.353
    ##  3 Baltimore,…            2827               1825               0.646      0.628
    ##  4 Baton Roug…             424                196               0.462      0.414
    ##  5 Birmingham…             800                347               0.434      0.399
    ##  6 Boston, MA              614                310               0.505      0.465
    ##  7 Buffalo, NY             521                319               0.612      0.569
    ##  8 Charlotte,…             687                206               0.300      0.266
    ##  9 Chicago, IL            5535               4073               0.736      0.724
    ## 10 Cincinnati…             694                309               0.445      0.408
    ## # ℹ 41 more rows
    ## # ℹ 1 more variable: conf_upper <dbl>
…
